<svg width="10" height="10" viewBox="0 0 10 10" fill="none" xmlns="http://www.w3.org/2000/svg">
<path fill-rule="evenodd" clip-rule="evenodd" d="M8.2929 0.29289C8.6834 -0.09763 9.3166 -0.09763 9.7071 0.29289C10.0976 0.68342 10.0976 1.31658 9.7071 1.70711L6.41421 5L9.7071 8.2929C10.0976 8.6834 10.0976 9.3166 9.7071 9.7071C9.3166 10.0976 8.6834 10.0976 8.2929 9.7071L5 6.41421L1.70711 9.7071C1.31658 10.0976 0.68342 10.0976 0.29289 9.7071C-0.09763 9.3166 -0.09763 8.6834 0.29289 8.2929L3.58579 5L0.29289 1.70711C-0.09763 1.31658 -0.09763 0.68342 0.29289 0.29289C0.68342 -0.09763 1.31658 -0.09763 1.70711 0.29289L5 3.58579L8.2929 0.29289Z" fill="white"/>
</svg>
